<svg xmlns="http://www.w3.org/2000/svg" width="60" height="60" viewBox="0 0 60 60">
  <metadata><?xpacket begin="﻿" id="W5M0MpCehiHzreSzNTczkc9d"?>
<x:xmpmeta xmlns:x="adobe:ns:meta/" x:xmptk="Adobe XMP Core 5.6-c138 79.159824, 2016/09/14-01:09:01        ">
   <rdf:RDF xmlns:rdf="http://www.w3.org/1999/02/22-rdf-syntax-ns#">
      <rdf:Description rdf:about=""/>
   </rdf:RDF>
</x:xmpmeta>
                                                                                                    
                                                                                                    
                                                                                                    
                                                                                                    
                                                                                                    
                                                                                                    
                                                                                                    
                                                                                                    
                                                                                                    
                                                                                                    
                                                                                                    
                                                                                                    
                                                                                                    
                                                                                                    
                                                                                                    
                                                                                                    
                                                                                                    
                                                                                                    
                                                                                                    
                                                                                                    
                           
<?xpacket end="w"?></metadata>
<defs>
    <style>
      .cls-1 {
        fill: #e92518;
        fill-rule: evenodd;
      }
    </style>
  </defs>
  <path class="cls-1" d="M30,54a4,4,0,1,0-4-4A4.012,4.012,0,0,0,30,54Zm0-6a2,2,0,1,1-2,2A2.006,2.006,0,0,1,30,48ZM59.717,1.7a0.912,0.912,0,0,0,.2-1.1,0.876,0.876,0,0,0-.9-0.6h-0.8a11.354,11.354,0,0,0-9.705,5.4c-0.1.2-.2,0.3-0.3,0.5a10.612,10.612,0,0,0-2.9-4.8,4.823,4.823,0,0,0-3-1.1H2.484a2.439,2.439,0,0,0-2.1,1.2,2.676,2.676,0,0,0-.1,2.6C1.4,5.75,1.909,8.736,1.976,13a0.944,0.944,0,0,0-.993,1v9a0.945,0.945,0,0,0,1,1v7a4.953,4.953,0,0,0,5,5l10.806,0.1a4.01,4.01,0,0,1,2.9,1.2,3.913,3.913,0,0,1,1.1,2.9L21.1,56.9a2.652,2.652,0,0,0,.8,2.2,3.1,3.1,0,0,0,2.2.9H35.9a2.7,2.7,0,0,0,2.2-1,3.5,3.5,0,0,0,.8-2.2L38.2,40.1a3.56,3.56,0,0,1,1.1-2.9,4.007,4.007,0,0,1,2.9-1.2H53.013a4.953,4.953,0,0,0,5-5V24a0.945,0.945,0,0,0,1-1V14a0.945,0.945,0,0,0-1-1H57.558C56.233,10.016,57.26,4.342,59.717,1.7ZM57.015,22H2.985V15H57.015v7Zm-1,9a2.947,2.947,0,0,1-3,3l-10.806.1a5.819,5.819,0,0,0-4.3,1.8,5.719,5.719,0,0,0-1.7,4.4L36.9,57a1.077,1.077,0,0,1-.3.7,0.909,0.909,0,0,1-.7.3H24.1a1.026,1.026,0,0,1-1-1l0.7-16.8a6.553,6.553,0,0,0-1.7-4.4,6.227,6.227,0,0,0-4.3-1.8H6.987a2.937,2.937,0,0,1-2.84-2h2.84a1,1,0,0,0,1-1,0.945,0.945,0,0,0-1-1h-3V28h5a1,1,0,1,0,0-2h-5V24H56.015v7h0Zm-7.7-18H3.985c-0.1-4.6-.7-7.9-1.9-10.1a1.144,1.144,0,0,1,0-.6,0.447,0.447,0,0,1,.4-0.3H42.307a3.228,3.228,0,0,1,1.8.6q2.1,1.8,3,6.6a0.962,0.962,0,0,0,.9.8,0.808,0.808,0,0,0,.9-0.7,9.927,9.927,0,0,1,1.2-2.9,9.224,9.224,0,0,1,6.8-4.3c-1.8,3.1-2.5,7.8-1.5,10.9h-7.1Z"/>
</svg>
