<svg xmlns="http://www.w3.org/2000/svg" width="17" height="18" viewBox="0 0 17 18">
  <metadata><?xpacket begin="﻿" id="W5M0MpCehiHzreSzNTczkc9d"?>
<x:xmpmeta xmlns:x="adobe:ns:meta/" x:xmptk="Adobe XMP Core 5.6-c138 79.159824, 2016/09/14-01:09:01        ">
   <rdf:RDF xmlns:rdf="http://www.w3.org/1999/02/22-rdf-syntax-ns#">
      <rdf:Description rdf:about=""/>
   </rdf:RDF>
</x:xmpmeta>
                                                                                                    
                                                                                                    
                                                                                                    
                                                                                                    
                                                                                                    
                                                                                                    
                                                                                                    
                                                                                                    
                                                                                                    
                                                                                                    
                                                                                                    
                                                                                                    
                                                                                                    
                                                                                                    
                                                                                                    
                                                                                                    
                                                                                                    
                                                                                                    
                                                                                                    
                                                                                                    
                           
<?xpacket end="w"?></metadata>
<defs>
    <style>
      .cls-1 {
        fill: #32a92c;
        fill-rule: evenodd;
      }
    </style>
  </defs>
  <path id="Forma_1" data-name="Forma 1" class="cls-1" d="M16.6,11.044a7.657,7.657,0,0,1-15.245.014H0.6a0.6,0.6,0,0,1-.515-0.9L1.768,7.215a0.593,0.593,0,0,1,1.031,0L4.483,10.16a0.6,0.6,0,0,1-.515.9H3.312A5.726,5.726,0,1,0,8.973,4.491a5.658,5.658,0,0,0-3.154.955,1,1,0,0,1-1.355-.182A0.986,0.986,0,0,1,4.688,3.85,7.567,7.567,0,0,1,8.023,2.589V1.472H7.243A0.488,0.488,0,0,1,6.756.983V0.488A0.488,0.488,0,0,1,7.243,0h3.62a0.488,0.488,0,0,1,.486.49V0.983a0.488,0.488,0,0,1-.486.489H10V2.6A7.724,7.724,0,0,1,16.6,11.044ZM16.849,3.62L15.383,2.254a0.483,0.483,0,0,0-.687.027L14.308,2.7a0.493,0.493,0,0,0,.027.692L15.8,4.764a0.482,0.482,0,0,0,.687-0.027l0.388-.423A0.5,0.5,0,0,0,16.849,3.62ZM8.95,5.5v4.8h4.708A4.639,4.639,0,0,0,8.95,5.5Z"/>
</svg>
